PolishedNotebook2
…
From here, some community activists would ask the question, why are there more arrests on the west side than any other area? More specifically, why does Census Tract 2315 have 1,395 criminals with a population of only 5,586 (Census Reporter). That is roughly 1 in every 4 people being a criminal. What is unique about this tract? This tract is the most extreme, but some of the surrounding tracts have substantially higher criminal counts in comparison to tracts in other areas of the city.

Another direction that this information could lead a researcher is in the direction of real estate and economy. Is there a correlation between high crime areas and income or even home value? These researchers would then explain the relationship between the two factors and hopefully give insight into which causes the other.

These two directions are very important and I hope to look at the data in both of those directions in the following analysis.

inc_add_chicago_sf %>% group_by(GEOID) %>% summarise(count = n(), cost = sum(sentence_cost, na.rm=TRUE))

## Simple feature collection with 766 features and 3 fields
## geometry type:  GEOMETRY
## dimension:      XY
## bbox:           xmin: -87.84659 ymin: 41.64578 xmax: -87.52547 ymax: 42.02277
## geographic CRS: NAD83
## # A tibble: 766 x 4
##    GEOID     count    cost                                              geometry
##    <chr>     <int>   <dbl>                                      <MULTIPOINT []>
##  1 17031010~   296  2.17e7 ((-87.67425 42.02134), (-87.67338 42.02132), (-87.67~
##  2 17031010~   246  1.60e7 ((-87.68426 42.01627), (-87.68346 42.01821), (-87.68~
##  3 17031010~    87  1.86e7 ((-87.6766 42.01932), (-87.6752 42.01606), (-87.6750~
##  4 17031010~   116  7.68e6 ((-87.67063 42.0185), (-87.6702 42.01272), (-87.6685~
##  5 17031010~    94  5.91e6 ((-87.66454 42.00817), (-87.66404 42.00691), (-87.66~
##  6 17031010~    70  3.59e6 ((-87.66527 42.00563), (-87.66382 42.00476), (-87.66~
##  7 17031010~    27  1.87e6 ((-87.66414 42.00164), (-87.66348 42.0004), (-87.663~
##  8 17031010~   162  1.16e7 ((-87.67056 42.00443), (-87.67053 42.00355), (-87.66~
##  9 17031010~    30  2.93e6 ((-87.68227 42.01004), (-87.68047 42.01165), (-87.68~
## 10 17031010~   181  1.42e7 ((-87.67542 42.01191), (-87.67429 42.00916), (-87.67~
## # ... with 756 more rows
…
